<?xml version="1.0" encoding="UTF-8" standalone="no"?>
<!-- Created with Inkscape (http://www.inkscape.org/) -->
<svg xmlns:dc="http://purl.org/dc/elements/1.1/" xmlns:cc="http://creativecommons.org/ns#" xmlns:rdf="http://www.w3.org/1999/02/22-rdf-syntax-ns#" xmlns:svg="http://www.w3.org/2000/svg" xmlns="http://www.w3.org/2000/svg" xmlns:xlink="http://www.w3.org/1999/xlink" xmlns:sodipodi="http://sodipodi.sourceforge.net/DTD/sodipodi-0.dtd" xmlns:inkscape="http://www.inkscape.org/namespaces/inkscape" inkscape:output_extension="org.inkscape.output.svg.inkscape" sodipodi:docname="Waterfall_model-en.svg" version="1.0" inkscape:version="0.48.4 r9939" sodipodi:version="0.32" id="svg2383" height="600" width="800">
  <title id="title3146">Waterfall model</title>
  <defs id="defs2385">
    <marker inkscape:stockid="Arrow2Mend" orient="auto" refY="0" refX="0" id="Arrow2Mend" style="overflow:visible">
      <path id="path3875" style="fill-rule:evenodd;stroke-width:0.625;stroke-linejoin:round" d="M 8.7185878,4.0337352 -2.2072895,0.01601326 8.7185884,-4.0017078 c -1.7454984,2.3720609 -1.7354408,5.6174519 -6e-7,8.035443 z" transform="scale(-0.6,-0.6)" inkscape:connector-curvature="0"/>
    </marker>
    <inkscape:perspective sodipodi:type="inkscape:persp3d" inkscape:vp_x="0 : 372.04724 : 1" inkscape:vp_y="0 : 1000 : 0" inkscape:vp_z="1052.3622 : 372.04724 : 1" inkscape:persp3d-origin="526.18109 : 248.03149 : 1" id="perspective2444"/>
    <marker inkscape:stockid="Arrow2Lend" orient="auto" refY="0" refX="0" id="Arrow2Lend" style="overflow:visible">
      <path id="path3279" style="font-size:12px;fill-rule:evenodd;stroke-width:0.625;stroke-linejoin:round" d="M 8.7185878,4.0337352 -2.2072895,0.01601326 8.7185884,-4.0017078 c -1.7454984,2.3720609 -1.7354408,5.6174519 -6e-7,8.035443 z" transform="matrix(-1.1,0,0,-1.1,-1.1,0)" inkscape:connector-curvature="0"/>
    </marker>
    <filter inkscape:collect="always" id="filter4378" color-interpolation-filters="sRGB">
      <feGaussianBlur inkscape:collect="always" stdDeviation="3.2" id="feGaussianBlur4380"/>
    </filter>
  </defs>
  <sodipodi:namedview id="base" pagecolor="#ffffff" bordercolor="#666666" borderopacity="1.0" gridtolerance="10000" guidetolerance="10" objecttolerance="10" inkscape:pageopacity="0.0" inkscape:pageshadow="2" inkscape:zoom="0.40477" inkscape:cx="-117.83742" inkscape:cy="41.809837" inkscape:document-units="px" inkscape:current-layer="layer3" showgrid="false" inkscape:window-width="1920" inkscape:window-height="1021" inkscape:window-x="0" inkscape:window-y="27" showguides="true" inkscape:guide-bbox="true" inkscape:snap-bbox="true" inkscape:snap-grids="false" inkscape:snap-midpoints="true" inkscape:object-paths="true" inkscape:snap-bbox-midpoints="true" inkscape:snap-bbox-edge-midpoints="true" inkscape:bbox-nodes="true" inkscape:bbox-paths="false" inkscape:snap-intersection-paths="true" inkscape:object-nodes="true" inkscape:snap-smooth-nodes="true" inkscape:snap-nodes="true" inkscape:window-maximized="1" inkscape:snap-object-midpoints="false" inkscape:snap-center="false" fit-margin-top="0" fit-margin-left="0" fit-margin-right="0" fit-margin-bottom="0" inkscape:snap-page="true" inkscape:snap-to-guides="false">
    <inkscape:grid type="xygrid" id="grid2586" visible="true" enabled="true" empspacing="5" snapvisiblegridlinesonly="true" originx="-5.3200362px" originy="0.67707641px"/>
  </sodipodi:namedview>
  <metadata id="metadata2388">
    <rdf:RDF>
      <cc:Work rdf:about="">
        <dc:format>image/svg+xml</dc:format>
        <dc:type rdf:resource="http://purl.org/dc/dcmitype/StillImage"/>
        <dc:title>Waterfall model</dc:title>
        <cc:license rdf:resource="http://creativecommons.org/licenses/by-sa/3.0/"/>
        <dc:creator>
          <cc:Agent>
            <dc:title>Shmuel Csaba Otto Traian Xerxes</dc:title>
          </cc:Agent>
        </dc:creator>
        <dc:rights>
          <cc:Agent>
            <dc:title>Shmuel Csaba Otto Traian Xerxes</dc:title>
          </cc:Agent>
        </dc:rights>
        <dc:date>2013-10-21</dc:date>
        <dc:language>en-US</dc:language>
        <dc:contributor>
          <cc:Agent>
            <dc:title>https://commons.wikimedia.org/wiki/File:Waterfall_model.png by PaulHoadley</dc:title>
          </cc:Agent>
        </dc:contributor>
      </cc:Work>
      <cc:License rdf:about="http://creativecommons.org/licenses/by-sa/3.0/">
        <cc:permits rdf:resource="http://creativecommons.org/ns#Reproduction"/>
        <cc:permits rdf:resource="http://creativecommons.org/ns#Distribution"/>
        <cc:requires rdf:resource="http://creativecommons.org/ns#Notice"/>
        <cc:requires rdf:resource="http://creativecommons.org/ns#Attribution"/>
        <cc:permits rdf:resource="http://creativecommons.org/ns#DerivativeWorks"/>
        <cc:requires rdf:resource="http://creativecommons.org/ns#ShareAlike"/>
      </cc:License>
    </rdf:RDF>
  </metadata>
  <g inkscape:label="boxes" inkscape:groupmode="layer" id="layer1" transform="translate(-104.25092,-63.490303)">
    <path transform="translate(98.930884,62.813241)" inkscape:connector-curvature="0" id="path4401" d="m 400.70855,145.7961 23.78379,28.5 -23.78379,28.5 0,-15 -16.21621,0 0,-27 16.21621,0 0,-15 z" style="fill:#80C1FF;fill-opacity:1;fill-rule:nonzero;stroke:#000000;stroke-width:1.47000003000000001;stroke-linecap:square;stroke-miterlimit:4;stroke-opacity:1;stroke-dasharray:none;display:inline"/>
    <path transform="translate(98.930884,62.813241)" style="fill:#B1FF80;fill-opacity:1;fill-rule:nonzero;stroke:#000000;stroke-width:1.47000003000000001;stroke-linecap:square;stroke-miterlimit:4;stroke-opacity:1;stroke-dasharray:none;display:inline" d="m 536.86556,270.77783 23.78379,28.5 -23.78379,28.5 0,-15 -16.21621,0 0,-27 16.21621,0 0,-15 z" id="path4403" inkscape:connector-curvature="0"/>
    <use x="0" y="0" xlink:href="#rect2495" id="use2578" transform="translate(136.22128,125.01738)" width="1052.3622" height="744.09448"/>
    <use x="0" y="0" xlink:href="#rect2495" id="use2582" transform="matrix(0.9997312,0,0,0.9996198,272.47058,250.06068)" width="1052.3622" height="744.09448"/>
    <use x="0" y="0" xlink:href="#rect2495" id="use2580" transform="matrix(0.9996543,0,0,1,408.63125,375.01591)" width="1052.3622" height="744.09448"/>
    <use x="0" y="0" xlink:href="#rect2495" id="use2584" transform="matrix(0.9996543,0,0,0.9996198,544.76424,500.05922)" width="1052.3622" height="744.09448"/>
    <rect transform="translate(98.930884,62.813241)" y="509.99994" x="554.37097" height="78.556305" width="238.54321" id="rect2454" style="fill:#FFCE80;fill-opacity:1;fill-rule:nonzero;stroke:#000000;stroke-width:1.46561955999999993;stroke-linecap:round;stroke-linejoin:miter;stroke-miterlimit:4;stroke-opacity:1;stroke-dasharray:none;stroke-dashoffset:0"/>
    <path style="fill:#FF8080;fill-opacity:1;fill-rule:nonzero;stroke:#000000;stroke-width:1.47000003000000001;stroke-linecap:square;stroke-miterlimit:4;stroke-opacity:1;stroke-dasharray:none;display:inline" d="m 363.6853,83.593841 23.78379,28.499989 -23.78379,28.5 0,-15 -16.21621,0 0,-26.999989 16.21621,0 0,-15 z" id="path4523" inkscape:connector-curvature="0"/>
    <rect style="fill:#1f1f1f;fill-opacity:1;fill-rule:nonzero;stroke:none;filter:url(#filter4378)" id="rect2495" width="240" height="80" x="111.93092" y="75.813248"/>
    <rect style="fill:#FF8080;fill-opacity:1;fill-rule:nonzero;stroke:#000000;stroke-width:1.47386800999999990;stroke-linecap:round;stroke-linejoin:miter;stroke-miterlimit:4;stroke-opacity:1;stroke-dasharray:none;stroke-dashoffset:0" id="rect2417" width="238.53818" height="78.561226" x="108.9309" y="72.813225"/>
    <rect transform="translate(98.930884,62.813241)" style="fill:#fff45a;fill-opacity:1;fill-rule:nonzero;stroke:#000000;stroke-width:1.46811425999999967;stroke-linecap:round;stroke-linejoin:miter;stroke-miterlimit:4;stroke-opacity:1;stroke-dasharray:none;stroke-dashoffset:0" id="rect2440" width="238.54572" height="78.553864" x="418.23676" y="385.01593"/>
    <rect transform="translate(98.930884,62.813241)" y="260.00143" x="282.1026" height="78.552803" width="238.54678" id="rect2426" style="fill:#B1FF80;fill-opacity:1;fill-rule:nonzero;stroke:#000000;stroke-width:1.47262156000000011;stroke-linecap:round;stroke-linejoin:miter;stroke-miterlimit:4;stroke-opacity:1;stroke-dasharray:none;stroke-dashoffset:0"/>
    <rect transform="translate(98.930884,62.813241)" style="fill:#80C1FF;fill-opacity:1;fill-rule:nonzero;stroke:#000000;stroke-width:1.46919394000000003;stroke-linecap:round;stroke-linejoin:miter;stroke-miterlimit:4;stroke-opacity:1;stroke-dasharray:none;stroke-dashoffset:0" id="rect2394" width="238.54208" height="78.557419" x="145.95026" y="135.0174"/>
  </g>
  <g inkscape:groupmode="layer" id="layer3" inkscape:label="text" transform="translate(-5.3200362,-0.67706186)">
    <g id="g3287" transform="translate(-103.20815,0)">
      <text transform="scale(0.84063911,1.1895711)" sodipodi:linespacing="125%" id="text3196" y="49.723888" x="784.19165" style="font-size:32px;font-style:normal;font-variant:normal;font-weight:bold;font-stretch:normal;text-align:center;line-height:125%;writing-mode:lr-tb;text-anchor:middle;fill:#000000;fill-opacity:1;stroke:none;font-family:Sans;-inkscape-font-specification:Sans Bold" xml:space="preserve"><tspan style="font-size:20px;font-style:normal;font-variant:normal;font-weight:bold;font-stretch:normal;text-align:center;line-height:125%;writing-mode:lr-tb;text-anchor:middle;fill:#000000;font-family:Sans;-inkscape-font-specification:Sans Bold" y="49.723888" x="784.19165" id="tspan3198" sodipodi:role="line">Product requirements document</tspan></text>
      <text xml:space="preserve" style="font-size:32px;font-style:normal;font-variant:normal;font-weight:bold;font-stretch:normal;text-align:center;line-height:125%;writing-mode:lr-tb;text-anchor:middle;fill:#ff8080;fill-opacity:1;stroke:none;font-family:Sans;-inkscape-font-specification:Sans Bold" x="783.00208" y="48.883251" id="text4413" sodipodi:linespacing="125%" transform="scale(0.84063911,1.1895711)"><tspan sodipodi:role="line" id="tspan4415" x="783.00208" y="48.883251" style="font-size:20px;font-style:normal;font-variant:normal;font-weight:bold;font-stretch:normal;text-align:center;line-height:125%;writing-mode:lr-tb;text-anchor:middle;fill:#ff8080;font-family:Sans;-inkscape-font-specification:Sans Bold">Product requirements document</tspan></text>
    </g>
    <g id="g3293" transform="translate(-7.2734985,0)">
      <text xml:space="preserve" style="font-size:32px;font-style:normal;font-variant:normal;font-weight:bold;font-stretch:normal;text-align:center;line-height:125%;writing-mode:lr-tb;text-anchor:middle;fill:#000000;fill-opacity:1;stroke:none;font-family:Sans;-inkscape-font-specification:Sans Bold" x="730.40259" y="154.81682" id="text3192" sodipodi:linespacing="125%" transform="scale(0.84063911,1.1895711)"><tspan sodipodi:role="line" id="tspan3194" x="730.40259" y="154.81682" style="font-size:20px;font-style:normal;font-variant:normal;font-weight:bold;font-stretch:normal;text-align:center;line-height:125%;writing-mode:lr-tb;text-anchor:middle;fill:#000000;font-family:Sans;-inkscape-font-specification:Sans Bold">Software architecture</tspan></text>
      <text transform="scale(0.84063911,1.1895711)" sodipodi:linespacing="125%" id="text4409" y="153.97618" x="729.21301" style="font-size:32px;font-style:normal;font-variant:normal;font-weight:bold;font-stretch:normal;text-align:center;line-height:125%;writing-mode:lr-tb;text-anchor:middle;fill:#80c1ff;fill-opacity:1;stroke:none;font-family:Sans;-inkscape-font-specification:Sans Bold" xml:space="preserve"><tspan style="font-size:20px;font-style:normal;font-variant:normal;font-weight:bold;font-stretch:normal;text-align:center;line-height:125%;writing-mode:lr-tb;text-anchor:middle;fill:#80c1ff;font-family:Sans;-inkscape-font-specification:Sans Bold" y="153.97618" x="729.21301" id="tspan4411" sodipodi:role="line">Software architecture</tspan></text>
    </g>
    <text id="text2428" y="248.18291" x="501.65826" style="font-size:32px;font-style:normal;font-variant:normal;font-weight:bold;font-stretch:normal;text-align:center;line-height:125%;writing-mode:lr-tb;text-anchor:middle;fill:#000000;fill-opacity:1;stroke:none;font-family:Sans;-inkscape-font-specification:Sans Bold" xml:space="preserve" sodipodi:linespacing="125%" transform="scale(0.79977452,1.2503524)"><tspan y="248.18291" x="501.65826" id="tspan2430" sodipodi:role="line">Implementation</tspan></text>
    <text transform="scale(0.86396955,1.1574482)" sodipodi:linespacing="125%" id="text4344" y="162.51622" x="305.37836" style="font-size:32px;font-style:normal;font-variant:normal;font-weight:bold;font-stretch:normal;text-align:center;line-height:125%;writing-mode:lr-tb;text-anchor:middle;fill:#000000;fill-opacity:1;stroke:none;font-family:Sans;-inkscape-font-specification:Sans Bold" xml:space="preserve"><tspan y="162.51622" x="305.37836" id="tspan4346" sodipodi:role="line">Design</tspan></text>
    <text transform="scale(0.84063911,1.1895711)" sodipodi:linespacing="125%" id="text4348" y="50.130333" x="154.9623" style="font-size:32px;font-style:normal;font-variant:normal;font-weight:bold;font-stretch:normal;text-align:center;line-height:125%;writing-mode:lr-tb;text-anchor:middle;fill:#000000;fill-opacity:1;stroke:none;font-family:Sans;-inkscape-font-specification:Sans Bold" xml:space="preserve"><tspan style="font-size:32px;font-style:normal;font-variant:normal;font-weight:bold;font-stretch:normal;text-align:center;line-height:125%;writing-mode:lr-tb;text-anchor:middle;font-family:Sans;-inkscape-font-specification:Sans Bold" y="50.130333" x="154.9623" id="tspan4350" sodipodi:role="line">Requirements</tspan></text>
    <text transform="scale(0.84063911,1.1895711)" sodipodi:linespacing="125%" xml:space="preserve" style="font-size:32px;font-style:normal;font-variant:normal;font-weight:bold;font-stretch:normal;text-align:center;line-height:125%;writing-mode:lr-tb;text-anchor:middle;fill:#000000;fill-opacity:1;stroke:none;font-family:Sans;-inkscape-font-specification:Sans Bold" x="802.22864" y="469.95563" id="text4352"><tspan sodipodi:role="line" id="tspan4354" x="802.22864" y="469.95563">Maintenance</tspan></text>
    <text transform="scale(0.86765909,1.1525264)" sodipodi:linespacing="125%" id="text4356" y="379.52435" x="619.38464" style="font-size:32px;font-style:normal;font-variant:normal;font-weight:bold;font-stretch:normal;text-align:center;line-height:125%;writing-mode:lr-tb;text-anchor:middle;fill:#000000;fill-opacity:1;stroke:none;font-family:Sans;-inkscape-font-specification:Sans Bold" xml:space="preserve"><tspan y="379.52435" x="619.38464" id="tspan4358" sodipodi:role="line">Verification</tspan></text>
    <g id="g3299">
      <text xml:space="preserve" style="font-size:32px;font-style:normal;font-variant:normal;font-weight:bold;font-stretch:normal;text-align:center;line-height:125%;writing-mode:lr-tb;text-anchor:middle;fill:#000000;fill-opacity:1;stroke:none;font-family:Sans;-inkscape-font-specification:Sans Bold" x="794.56274" y="259.88135" id="text3188" sodipodi:linespacing="125%" transform="scale(0.84063911,1.1895711)"><tspan sodipodi:role="line" id="tspan3190" x="794.56274" y="259.88135" style="font-size:20px;font-style:normal;font-variant:normal;font-weight:bold;font-stretch:normal;text-align:center;line-height:125%;writing-mode:lr-tb;text-anchor:middle;fill:#000000;font-family:Sans;-inkscape-font-specification:Sans Bold">Software</tspan></text>
      <text transform="scale(0.84063911,1.1895711)" sodipodi:linespacing="125%" id="text4405" y="259.04071" x="793.37317" style="font-size:32px;font-style:normal;font-variant:normal;font-weight:bold;font-stretch:normal;text-align:center;line-height:125%;writing-mode:lr-tb;text-anchor:middle;fill:#B1FF80;fill-opacity:1;stroke:none;font-family:Sans;-inkscape-font-specification:Sans Bold" xml:space="preserve"><tspan style="font-size:20px;font-style:normal;font-variant:normal;font-weight:bold;font-stretch:normal;text-align:center;line-height:125%;writing-mode:lr-tb;text-anchor:middle;font-family:Sans;-inkscape-font-specification:Sans Bold;fill:#B1FF80" y="259.04071" x="793.37317" id="tspan4407" sodipodi:role="line">Software</tspan></text>
    </g>
    <path style="fill:none;stroke:#000000;stroke-width:3;stroke-linecap:butt;stroke-linejoin:miter;stroke-miterlimit:4;stroke-opacity:1;stroke-dasharray:none;marker-end:url(#Arrow2Mend)" d="m 123.94907,87.884148 c 0,30.413672 97.54493,8.048921 135.95219,46.456182" id="path4736" inkscape:connector-curvature="0" transform="translate(5.3200362,0.67706186)" inkscape:tile-cx="193.05966" inkscape:tile-cy="111.23304" inkscape:tile-w="135.95219" inkscape:tile-h="46.456182" inkscape:tile-x0="123.94907" inkscape:tile-y0="87.884148" sodipodi:nodetypes="cc"/>
    <use x="0" y="0" inkscape:tiled-clone-of="#path4736" xlink:href="#path4736" id="use4930" transform="translate(135.95219,125.0136)" width="800" height="600"/>
    <use x="0" y="0" inkscape:tiled-clone-of="#path4736" xlink:href="#path4736" transform="translate(272.10687,249.99302)" id="use4932" width="800" height="600"/>
    <use x="0" y="0" inkscape:tiled-clone-of="#path4736" xlink:href="#path4736" transform="translate(408.2405,375.00854)" id="use4934" width="800" height="600"/>
  </g>
</svg>